{
  "campaigns": {
  "data": {
    "total": 8,
    "current_page": 2,
    "limit": 2,
    "last_page": 4,
    "items": [
      {
        "id": "04a94a73-4e55-439e-9da1-52296470a710",
        "title": "Dietetic Technician",
        "funding": 11182,
        "funds_raised": 23,
        "image": "https:\/\/via.placeholder.com\/640x480.png\/008855?text=rerum",
        "is_featured": null,
        "due_date": "1624716489",
        "slug": "dietetic-technician",
        "created_at": "1619084760",
        "status": 1,
        "campaigner_name": "Mr. Ashton Kihn Jr.",
        "campaigner_id": "49051263-e737-49e4-b9cf-aea3ac5dab9a",
        "funding_formated": "Rp 11.182",
        "funds_raised_formated": "Rp 23",
        "percentage": 0.20568771239492042,
        "days_remaining": 1,
        "created_at_formated": "22 April 2021",
        "due_date_formated": "26 June 2021",
        "image_url": "https:\/\/storage.googleapis.com\/rumahberkat\/https%3A\/\/via.placeholder.com\/640x480.png\/008855%3Ftext%3Drerum?GoogleAccessId=471072079853-compute%40developer.gserviceaccount.com&Expires=1624866261&Signature=hvk1xmx9XR%2BP4byey1J69Bh2oNsvxhjAsEivSteXzq7FZ1g9Rl%2BOrUZGPfRPTuye6IGKCL5zhejGwYL7pOI5WrCyT46vH%2FbGiRdbftLvb6IrRiH0uE0TviGnvEhwNn0NhLbDL%2Bp%2BSdd8EIrCUZQm%2BslMe8azp7Ten5uohyLVco2xCdE98aIh06qW4WRSNBRpZbiZ0D%2F5hVz3cZ9n1D9dvvLFrQgTLSYhDfHaUWEvGjPQq8HkIkY7tlGqCDFDu3Kgoyxmz9srRtBg9e%2FGTjTlCQ647hP0mGIKK%2BGPt1Tbw12MZwKwOB7UQfIefpDLejKpVHfgzS4jguJzv%2FYGvfWfrw%3D%3D",
        "status_formated": "Verified"
      },
      {
        "id": "68548b6f-af39-4506-a770-33f6d1496713",
        "title": "Title Abstractor",
        "funding": 10596,
        "funds_raised": 81,
        "image": "https:\/\/via.placeholder.com\/640x480.png\/004400?text=enim",
        "is_featured": null,
        "due_date": "1624716489",
        "slug": "title-abstractor",
        "created_at": "1619084760",
        "status": 1,
        "campaigner_name": "Ima Beahan",
        "campaigner_id": "d21176ed-d8e2-4ddb-a1e3-82d0b6e14174",
        "funding_formated": "Rp 10.596",
        "funds_raised_formated": "Rp 81",
        "percentage": 0.7644394110985278,
        "days_remaining": 1,
        "created_at_formated": "22 April 2021",
        "due_date_formated": "26 June 2021",
        "image_url": "https:\/\/storage.googleapis.com\/rumahberkat\/https%3A\/\/via.placeholder.com\/640x480.png\/004400%3Ftext%3Denim?GoogleAccessId=471072079853-compute%40developer.gserviceaccount.com&Expires=1624866261&Signature=CTtZczmTxVUVML%2BJ1mos852cArJkw7tuAOj%2B8mUXNmpQoLIwSFJnRqC7gwk6y%2B3vJp54KZzavYmmm8p%2FB66iIn0Q4nlOEEku7fbcBAk3Xtj0LuSTqEFvudyMrWU84TyDbilkn59waL7SNgWR5vAIr9EtOzbnuyWIBYGWBIQiuz5IPz8iLmVTvYUc8B863jbOaZkNFNQGvgqC6TKGqs9siNZnVpYnBhgQ2rdorPuU9kUxTau7NQ9LoyuyNWFsYy4fWn8jg%2FMrtCmPAdwO7CpU%2Bnl%2BuSAAZuJ1zAZqY1lKPhFwy2vaavLnGr8gLRggUkeAGS%2BBvP8fXgxojxC1ciivMw%3D%3D",
        "status_formated": "Verified"
      },
      {
        "id": "7196739c-8820-4d5f-9680-d938013fc366",
        "title": "Agricultural Crop Farm Manager",
        "funding": 4371,
        "funds_raised": 433,
        "image": "https:\/\/via.placeholder.com\/640x480.png\/00bb88?text=sit",
        "is_featured": null,
        "due_date": "1624716489",
        "slug": "agricultural-crop-farm-manager",
        "created_at": "1619084760",
        "status": 1,
        "campaigner_name": "Fausto Mohr I",
        "campaigner_id": "363ceee5-805f-45b2-a929-6301e9a2f845",
        "funding_formated": "Rp 4.371",
        "funds_raised_formated": "Rp 433",
        "percentage": 9.90619995424388,
        "days_remaining": 1,
        "created_at_formated": "22 April 2021",
        "due_date_formated": "26 June 2021",
        "image_url": "https:\/\/storage.googleapis.com\/rumahberkat\/https%3A\/\/via.placeholder.com\/640x480.png\/00bb88%3Ftext%3Dsit?GoogleAccessId=471072079853-compute%40developer.gserviceaccount.com&Expires=1624866261&Signature=Qq98LwSLoS5m9PYq1ivygzQ7E%2Fe54nd4WKup7fPjO5%2FkwAsiBYg%2Btt%2FWeKyCwBfqFa8%2BpkuiVSRTCLhrmQTcai%2BL07NVJXNvQI6tTbcBvL5o6dcY2WzxOYROPtlo1R5HP3oEgm70zmIUmvX5TvKbTOwbvc882YUvdP0f4ljhBWznWJSjEI%2BUAi2Jj3UVItNSCXvbkxrRQZb1s1u1uPDw1hAR3v6hs8svimYNijeEib8sDBYbCCox1Nf9UATxN2h8X4A7kVWzdZdloeQNSbW6BAlTh2yhNQ0%2FIgRgpcGJ6um9459fODQc3yAn%2BPoqjNwSjNOq9aVdcQlM9%2BtFT7gGlg%3D%3D",
        "status_formated": "Verified"
      }
    ]
  },
  "message": "Successfully"
},
  "campaigns/ecb92705-752c-4879-a37f-74cb54d04080": {
  "data": {
    "campaign": {
      "id": "ecb92705-752c-4879-a37f-74cb54d04080",
      "campaigner_id": "93a871eb-40ad-411a-92d9-7897b3026ba7",
      "category_id": 1,
      "is_volunteer": 0,
      "title": "Example Campaign",
      "funding": 250000000,
      "funds_raised": 0,
      "image": "documents\/campaigns\/n3n2wbbTVJgoGhFJJ1hvnkn8yPIH3SUaj2heD6lV.png",
      "due_date": "1622678400",
      "story": "<p>asd asd asd<\/p>",
      "necessity": "Test yayaya",
      "beneficiary_name": "Ryan",
      "is_hospitalized": 0,
      "status": 2,
      "hospital": "",
      "diagnosis": "",
      "treatment": "",
      "slug": "example-campaign",
      "meta": null,
      "created_at": "2021-04-28T08:11:49.000000Z",
      "funding_formated": "Rp 250.000.000",
      "funds_raised_formated": "Rp 0",
      "percentage": 0,
      "days_remaining": 25,
      "created_at_formated": "28 April 2021",
      "due_date_formated": "03 June 2021",
      "image_url": "https:\/\/storage.googleapis.com\/rumahberkat\/documents\/campaigns\/n3n2wbbTVJgoGhFJJ1hvnkn8yPIH3SUaj2heD6lV.png?GoogleAccessId=471072079853-compute%40developer.gserviceaccount.com&Expires=1624866111&Signature=YiVsw1VY3nVVP3Xuy%2FAM2N63bq%2FySCgRhTOMad%2BUy11b86eBsUxjdQaotUJNlu8qv088z4WjHTThPU6hhes8XtM0OcjfQxvUHqgafRhDl7Xcp7nJvpJ%2BolvvEe0TOHszlzsF11pOrdapS9uF548Xsedcnl1T3BXQq4IYk5vO5Vd08VSdPlx0%2Fcsua%2Be6%2FSKi8rrtV6MNo5KD6GH9DQ1cFjx5Zo2BFlalVxCLcjXZ6EwReva4H7usElHSqq5qdECPHHI5Q5D%2FpzazalWXtJ4ugxFP%2FnDuD4VbtMfuyYWaKeRfrcv%2F8uDpYiaAvCmrmcpqz0scJeHgPUDfCe9Gkx9DzA%3D%3D",
      "status_formated": "Being verified",
      "updated_at_formated": null,
      "campaigner_avatar": null
    },
    "campaigner": {
      "id": "93a871eb-40ad-411a-92d9-7897b3026ba7",
      "name": "Wachid",
      "avatar": "users\/avatars\/A3pJBaLg9lRojFidbA5BPsrcjjVx6xCzd7TYSDWC.png",
      "avatar_url": "https:\/\/storage.googleapis.com\/rumahberkat\/users\/avatars\/A3pJBaLg9lRojFidbA5BPsrcjjVx6xCzd7TYSDWC.png?GoogleAccessId=471072079853-compute%40developer.gserviceaccount.com&Expires=1624866111&Signature=X%2ByIU%2BR8z2AUWIT%2BfukrhlFXlHMR60Qh0oQ4nvx7aMG3Pfldq4072ZpelQ5ROwvR22hodCdsu10R41A2MBfpl3MDaMfeS5RnqMc9WKiWktrW23JRHnr8p4pTKe5WHcAgluBlyRRgabI9k%2Fmfule3DNgZKQCvu74LdmtoUQtXU4aKmMcIzINXvwoYhduplmz47nuxNMP1GiJ0iYdF%2BPIqeOSZdfhN6O9IvFpeban0f2A3JvDASbGBIiSiuxrHdOJjZs4nIQbUetonQ4cD2W5758Vs2902hc4U7kAyFyDXH9Q0YSUEclopxR%2Fj2LwmOyx1QH4CN1iaZSMgQgvoYaaNTg%3D%3D",
      "id_card_image_url": null,
      "birth_format": null
    }
  },
  "message": "successfully"
}
  
}
